module gitlab.com/resticgui/resticgui

go 1.20

require (
	github.com/gin-gonic/gin v1.9.0
	github.com/mattn/go-sqlite3 v1.14.16
	github.com/robfig/cron/v3 v3.0.1
	github.com/rs/zerolog v1.29.0
	github.com/spf13/viper v1.15.0
	github.com/stretchr/testify v1.8.2
	github.com/swaggo/files v1.0.0
	github.com/swaggo/gin-swagger v1.5.3
	github.com/swaggo/swag v1.8.10

)

require (
	entgo.io/ent v0.11.9
	github.com/go-openapi/swag v0.22.3 // indirect
	github.com/go-playground/validator/v10 v10.11.2 // indirect
	github.com/mailru/easyjson v0.7.7 // indirect
	github.com/spf13/afero v1.9.5 // indirect
	golang.org/x/crypto v0.7.0 // indirect
	golang.org/x/sys v0.6.0 // indirect
	golang.org/x/tools v0.7.0 // indirect
	gopkg.in/ini.v1 v1.67.0 // indirect
)

require (
	ariga.io/atlas v0.9.1 // indirect
	github.com/KyleBanks/depth v1.2.1 // indirect
	github.com/agext/levenshtein v1.2.3 // indirect
	github.com/apparentlymart/go-textseg/v13 v13.0.0 // indirect
	github.com/bytedance/sonic v1.8.3 // indirect
	github.com/chenzhuoyu/base64x v0.0.0-20221115062448-fe3a3abad311 // indirect
	github.com/davecgh/go-spew v1.1.1 // indirect
	github.com/fsnotify/fsnotify v1.6.0 // indirect
	github.com/gin-contrib/sse v0.1.0 // indirect
	github.com/go-openapi/inflect v0.19.0 // indirect
	github.com/go-openapi/jsonpointer v0.19.6 // indirect
	github.com/go-openapi/jsonreference v0.20.2 // indirect
	github.com/go-openapi/spec v0.20.8 // indirect
	github.com/go-playground/locales v0.14.1 // indirect
	github.com/go-playground/universal-translator v0.18.1 // indirect
	github.com/goccy/go-json v0.10.0 // indirect
	github.com/google/go-cmp v0.5.9 // indirect
	github.com/google/uuid v1.3.0 // indirect
	github.com/hashicorp/hcl v1.0.0 // indirect
	github.com/hashicorp/hcl/v2 v2.16.2 // indirect
	github.com/josharian/intern v1.0.0 // indirect
	github.com/json-iterator/go v1.1.12 // indirect
	github.com/klauspost/cpuid/v2 v2.2.4 // indirect
	github.com/leodido/go-urn v1.2.2 // indirect
	github.com/magiconair/properties v1.8.7 // indirect
	github.com/mattn/go-colorable v0.1.13 // indirect
	github.com/mattn/go-isatty v0.0.17 // indirect
	github.com/mitchellh/go-wordwrap v1.0.1 // indirect
	github.com/mitchellh/mapstructure v1.5.0 // indirect
	github.com/modern-go/concurrent v0.0.0-20180306012644-bacd9c7ef1dd // indirect
	github.com/modern-go/reflect2 v1.0.2 // indirect
	github.com/pelletier/go-toml/v2 v2.0.7 // indirect
	github.com/pmezard/go-difflib v1.0.0 // indirect
	github.com/spf13/cast v1.5.0 // indirect
	github.com/spf13/jwalterweatherman v1.1.0 // indirect
	github.com/spf13/pflag v1.0.5 // indirect
	github.com/subosito/gotenv v1.4.2 // indirect
	github.com/twitchyliquid64/golang-asm v0.15.1 // indirect
	github.com/ugorji/go/codec v1.2.11 // indirect
	github.com/zclconf/go-cty v1.13.0 // indirect
	golang.org/x/arch v0.3.0 // indirect
	golang.org/x/mod v0.9.0 // indirect
	golang.org/x/net v0.8.0 // indirect
	golang.org/x/text v0.8.0 // indirect
	google.golang.org/protobuf v1.29.0 // indirect
	gopkg.in/yaml.v3 v3.0.1 // indirect
)
